Lab 9
…
1.1 Summarizing & Visualizing the Number of Allisons

Show code

a_names_data |>   
  pivot_wider(names_from = Gender, 
              values_from = Count) |>
  mutate(across(.cols = c(F, M),
                ~ (replace_na(., 0)))) |>
  filter(Name == 'Allison') |>
  group_by(State) |>
  summarize(Name, F = sum(F), M = sum(M), .groups = "rowwise") |>
  distinct()

# A tibble: 51 × 4
# Rowwise:  State
   State Name        F     M
   <chr> <chr>   <dbl> <dbl>
 1 AK    Allison   232     0
 2 AL    Allison  1535     0
 3 AR    Allison  1198     0
 4 AZ    Allison  1880     0
 5 CA    Allison 12413     0
 6 CO    Allison  1594     0
 7 CT    Allison  1099     0
 8 DC    Allison   321     0
 9 DE    Allison   294     0
10 FL    Allison  4455     0
# … with 41 more rows
…
